{
	"orderMessage":
				[
				{"name":"全场已订本商品的买手数量是","value":"160"},
				{"name":"全场未订本商品的买手数量是","value":"59"},
				{"name":"已订本商品的买手量最多的是","value":"张治洲"},
				{"name":"未订本商品的买手量最多的是","value":"李鹏"}
				],
	"table":[
		["张治洲","485","","",""],
		["买手2","300","","",""],
		["买手3","200","","",""],
		["买手4","135","","",""],
		["买手5","124","","",""],
		["买手6","75","","",""],
		["买手7","55","","",""],
		["买手8","23","","",""],
		["买手9","10","","",""],
		["李鹏","9","","",""]
	],
	"description":
				[
				{"name":"产品属性","value":""},
				{"name":"款色号","value":""},
				{"name":"赠品","value":""},
				{"name":"品名","value":""},
				{"name":"产品卖点","value":""},
				{"name":"波段","value":""},
				{"name":"零售价格","value":""},
				{"name":"上市时间","value":""}
				]
}